{
    "iplugin": {
		"interfaces": ["IPlugin/1.0", "IGUIElement/1.0"],
		"references": {
		},
		"info": {
			"name": "GridMainMenuView",
			"about": "View plugin for plugin with interface IPluginLinker. Allows to load new plugins, unload existing plugins, read about plugin (this text)."
		}
    }
}
